…
\#Q5

``` r
bigrams <- mtsamples %>%
  unnest_ngrams(output = bigram, input = transcription, n = 2) %>%
  separate(bigram, into = c("w1", "w2"), sep = " ") %>%
  filter((w1 == "history") | (w2 == "history"))

bigrams %>%
  filter(w1 == "history") %>%
  select(w1, w2) %>%
  count(w2, sort = TRUE)
```

    ## # A tibble: 369 x 2
    ##    w2                  n
    ##    <chr>           <int>
    ##  1 of               4537
    ##  2 the               761
    ##  3 she               279
    ##  4 he                227
    ##  5 significant       200
    ##  6 this              200
    ##  7 and               197
    ##  8 1                 181
    ##  9 is                172
    ## 10 noncontributory   121
    ## # … with 359 more rows

``` r
bigrams %>%
  filter(w2 == "history") %>%
  select(w1, w2) %>%
  count(w1, sort = TRUE)
```

    ## # A tibble: 567 x 2
    ##    w1           n
    ##    <chr>    <int>
    ##  1 medical   1223
    ##  2 family     941
    ##  3 a          939
    ##  4 social     865
    ##  5 surgical   491
    ##  6 no         473
    ##  7 with       163
    ##  8 any        129
    ##  9 brief      125
    ## 10 the        107
    ## # … with 557 more rows

``` r
bigrams %>%
  filter(w2 == "history")%>%
  select(w1, w2) %>%
  count(w1, sort = TRUE)
```

    ## # A tibble: 567 x 2
    ##    w1           n
    ##    <chr>    <int>
    ##  1 medical   1223
    ##  2 family     941
    ##  3 a          939
    ##  4 social     865
    ##  5 surgical   491
    ##  6 no         473
    ##  7 with       163
    ##  8 any        129
    ##  9 brief      125
    ## 10 the        107
    ## # … with 557 more rows
…
